'
'   Copyright 2018, Cordite Foundation.
'
'    Licensed under the Apache License, Version 2.0 (the "License");
'    you may not use this file except in compliance with the License.
'    You may obtain a copy of the License at
'
'      http://www.apache.org/licenses/LICENSE-2.0
'
'    Unless required by applicable law or agreed to in writing, software
'    distributed under the License is distributed on an "AS IS" BASIS,
'    WITHOUT WARRANTIES OR CONDITIONS OF ANY KIND, either express or implied.
'    See the License for the specific language governing permissions and
'    limitations under the License.
'

@startuml

skinparam component {
  FontSize 13
  BackgroundColor<<Apache>> Red
  BorderColor<<Apache>> #FF6655
  FontName Courier
  BorderColor black
  BackgroundColor white
  ArrowFontName Impact
  ArrowColor black
  ArrowFontColor black
}

[dao] --> [dgl]
[metering] --> [dgl]
[metering] -> [dao]

[dao] --> [cordite-commons]
[metering] --> [cordite-commons]
[dgl] --> [cordite-commons]

[cordite] --> [metering]
[cordite] --> [dao]
[cordite] --> [dgl]
[cordite] -> [braid-corda]

@enduml